…
    ## `summarise()` has grouped output by 'examiner_id'. You can override using the
    ## `.groups` argument.

``` r
df_quarter
```

    ## # A tibble: 190,881 × 14
    ## # Groups:   examiner_id [5,649]
    ##    examiner_id quarter new_applications ISSUED_applications
    ##          <dbl> <chr>              <dbl>               <dbl>
    ##  1       59012 2004/3                 1                   0
    ##  2       59012 2006/1                 1                   1
    ##  3       59012 2006/2                 4                   3
    ##  4       59012 2006/3                 5                   1
    ##  5       59012 2006/4                 9                   4
    ##  6       59012 2007/1                 9                   3
    ##  7       59012 2007/2                16                   6
    ##  8       59012 2007/3                11                   7
    ##  9       59012 2007/4                10                   6
    ## 10       59012 2008/1                11                   2
    ## # ℹ 190,871 more rows
    ## # ℹ 10 more variables: total_abn_applications <dbl>,
    ## #   total_PEN_applications <dbl>, tenure_days <dbl>, women_in_art_unit <dbl>,
    ## #   Asian_in_art_unit <dbl>, Black_in_art_unit <dbl>, Other_in_art_unit <dbl>,
    ## #   White_in_art_unit <dbl>, separation_indicator <dbl>,
    ## #   au_move_indicator <dbl>
…
``` r
# modify separation indicator
# for each examiner, make the last quarter's separation indicator as 1 and the rest as 0
df_quarter %>%
        group_by(examiner_id) %>%
        mutate(
                separation_indicator = ifelse(
                        quarter == max(quarter),
                        1,
                        0
                )
        )
```

    ## # A tibble: 162,297 × 16
    ## # Groups:   examiner_id [4,849]
    ##    examiner_id quarter new_applications ISSUED_applications
    ##          <int> <chr>              <dbl>               <dbl>
    ##  1       59012 2004/3                 1                   0
    ##  2       59012 2006/1                 1                   1
    ##  3       59012 2006/2                 4                   3
    ##  4       59012 2006/3                 5                   1
    ##  5       59012 2006/4                 9                   4
    ##  6       59012 2007/1                 9                   3
    ##  7       59012 2007/2                16                   6
    ##  8       59012 2007/3                11                   7
    ##  9       59012 2007/4                10                   6
    ## 10       59012 2008/1                11                   2
    ## # ℹ 162,287 more rows
    ## # ℹ 12 more variables: total_abn_applications <dbl>,
    ## #   total_PEN_applications <dbl>, tenure_days <dbl>, women_in_art_unit <dbl>,
    ## #   Asian_in_art_unit <dbl>, Black_in_art_unit <dbl>, Other_in_art_unit <dbl>,
    ## #   White_in_art_unit <dbl>, separation_indicator <dbl>,
    ## #   au_move_indicator <int>, gender <fct>, race <fct>
…
