## Load data

Load the following data: + applications from `app_data_sample.parquet` +
edges from `edges_sample.csv`

    # change to your own path!
    data_path <- "/Users/kaz/Desktop/MMA - WINTER Code/"
    applications <- read_feather(paste0(data_path,"app_data_starter.feather"))

    applications

    ## # A tibble: 2,018,477 × 21
    ##    application_number filing_date examiner_name_last examiner_name_first
    ##    <chr>              <date>      <chr>              <chr>              
    ##  1 08284457           2000-01-26  HOWARD             JACQUELINE         
    ##  2 08413193           2000-10-11  YILDIRIM           BEKIR              
    ##  3 08531853           2000-05-17  HAMILTON           CYNTHIA            
    ##  4 08637752           2001-07-20  MOSHER             MARY               
    ##  5 08682726           2000-04-10  BARR               MICHAEL            
    ##  6 08687412           2000-04-28  GRAY               LINDA              
    ##  7 08716371           2004-01-26  MCMILLIAN          KARA               
    ##  8 08765941           2000-06-23  FORD               VANESSA            
    ##  9 08776818           2000-02-04  STRZELECKA         TERESA             
    ## 10 08809677           2002-02-20  KIM                SUN                
    ## # ℹ 2,018,467 more rows
    ## # ℹ 17 more variables: examiner_name_middle <chr>, examiner_id <dbl>,
    ## #   examiner_art_unit <dbl>, uspc_class <chr>, uspc_subclass <chr>,
    ## #   patent_number <chr>, patent_issue_date <date>, abandon_date <date>,
    ## #   disposal_type <chr>, appl_status_code <dbl>, appl_status_date <chr>,
    ## #   tc <dbl>, gender <chr>, race <chr>, earliest_date <date>,
    ## #   latest_date <date>, tenure_days <dbl>
…
    library(gender)
    #install_genderdata_package() # only run this line the first time you use the package, to get data for it

    # get a list of first names without repetitions
    examiner_names <- applications %>% 
      distinct(examiner_name_first)

    examiner_names

    ## # A tibble: 2,595 × 1
    ##    examiner_name_first
    ##    <chr>              
    ##  1 JACQUELINE         
    ##  2 BEKIR              
    ##  3 CYNTHIA            
    ##  4 MARY               
    ##  5 MICHAEL            
    ##  6 LINDA              
    ##  7 KARA               
    ##  8 VANESSA            
    ##  9 TERESA             
    ## 10 SUN                
    ## # ℹ 2,585 more rows
…
    # get a table of names and gender

    examiner_names_gender <- examiner_names %>% 
      do(results = gender(.$examiner_name_first, method = "ssa")) %>% 
      unnest(cols = c(results), keep_empty = TRUE) %>% 
      select(
        examiner_name_first = name,
        gender,
        proportion_female
      )

    examiner_names_gender

    ## # A tibble: 1,822 × 3
    ##    examiner_name_first gender proportion_female
    ##    <chr>               <chr>              <dbl>
    ##  1 AARON               male              0.0082
    ##  2 ABDEL               male              0     
    ##  3 ABDOU               male              0     
    ##  4 ABDUL               male              0     
    ##  5 ABDULHAKIM          male              0     
    ##  6 ABDULLAH            male              0     
    ##  7 ABDULLAHI           male              0     
    ##  8 ABIGAIL             female            0.998 
    ##  9 ABIMBOLA            female            0.944 
    ## 10 ABRAHAM             male              0.0031
    ## # ℹ 1,812 more rows
…
## Guess the examiner’s race

We’ll now use package `wru` to estimate likely race of an examiner. Just
like with gender, we’ll get a list of unique names first, only now we
are using surnames.

    library(wru)

    examiner_surnames <- applications %>% 
      select(surname = examiner_name_last) %>% 
      distinct()

    examiner_surnames

    ## # A tibble: 3,806 × 1
    ##    surname   
    ##    <chr>     
    ##  1 HOWARD    
    ##  2 YILDIRIM  
    ##  3 HAMILTON  
    ##  4 MOSHER    
    ##  5 BARR      
    ##  6 GRAY      
    ##  7 MCMILLIAN 
    ##  8 FORD      
    ##  9 STRZELECKA
    ## 10 KIM       
    ## # ℹ 3,796 more rows
…
    examiner_race <- predict_race(voter.file = examiner_surnames, surname.only = T) %>% 
      as_tibble()

    ## Warning: Unknown or uninitialised column: `state`.

    ## Proceeding with last name predictions...

    ## ℹ All local files already up-to-date!

    ## 701 (18.4%) individuals' last names were not matched.

    examiner_race

    ## # A tibble: 3,806 × 6
    ##    surname    pred.whi pred.bla pred.his pred.asi pred.oth
    ##    <chr>         <dbl>    <dbl>    <dbl>    <dbl>    <dbl>
    ##  1 HOWARD       0.597   0.295    0.0275   0.00690   0.0741
    ##  2 YILDIRIM     0.807   0.0273   0.0694   0.0165    0.0798
    ##  3 HAMILTON     0.656   0.239    0.0286   0.00750   0.0692
    ##  4 MOSHER       0.915   0.00425  0.0291   0.00917   0.0427
    ##  5 BARR         0.784   0.120    0.0268   0.00830   0.0615
    ##  6 GRAY         0.640   0.252    0.0281   0.00748   0.0724
    ##  7 MCMILLIAN    0.322   0.554    0.0212   0.00340   0.0995
    ##  8 FORD         0.576   0.320    0.0275   0.00621   0.0697
    ##  9 STRZELECKA   0.472   0.171    0.220    0.0825    0.0543
    ## 10 KIM          0.0169  0.00282  0.00546  0.943     0.0319
    ## # ℹ 3,796 more rows
…
    examiner_race <- examiner_race %>% 
      mutate(max_race_p = pmax(pred.asi, pred.bla, pred.his, pred.oth, pred.whi)) %>% 
      mutate(race = case_when(
        max_race_p == pred.asi ~ "Asian",
        max_race_p == pred.bla ~ "black",
        max_race_p == pred.his ~ "Hispanic",
        max_race_p == pred.oth ~ "other",
        max_race_p == pred.whi ~ "white",
        TRUE ~ NA_character_
      ))

    examiner_race

    ## # A tibble: 3,806 × 8
    ##    surname    pred.whi pred.bla pred.his pred.asi pred.oth max_race_p race 
    ##    <chr>         <dbl>    <dbl>    <dbl>    <dbl>    <dbl>      <dbl> <chr>
    ##  1 HOWARD       0.597   0.295    0.0275   0.00690   0.0741      0.597 white
    ##  2 YILDIRIM     0.807   0.0273   0.0694   0.0165    0.0798      0.807 white
    ##  3 HAMILTON     0.656   0.239    0.0286   0.00750   0.0692      0.656 white
    ##  4 MOSHER       0.915   0.00425  0.0291   0.00917   0.0427      0.915 white
    ##  5 BARR         0.784   0.120    0.0268   0.00830   0.0615      0.784 white
    ##  6 GRAY         0.640   0.252    0.0281   0.00748   0.0724      0.640 white
    ##  7 MCMILLIAN    0.322   0.554    0.0212   0.00340   0.0995      0.554 black
    ##  8 FORD         0.576   0.320    0.0275   0.00621   0.0697      0.576 white
    ##  9 STRZELECKA   0.472   0.171    0.220    0.0825    0.0543      0.472 white
    ## 10 KIM          0.0169  0.00282  0.00546  0.943     0.0319      0.943 Asian
    ## # ℹ 3,796 more rows
…
    library(lubridate) # to work with dates

    examiner_dates <- applications %>% 
      select(examiner_id, filing_date, appl_status_date) 

    examiner_dates

    ## # A tibble: 2,018,477 × 3
    ##    examiner_id filing_date appl_status_date  
    ##          <dbl> <date>      <chr>             
    ##  1       96082 2000-01-26  30jan2003 00:00:00
    ##  2       87678 2000-10-11  27sep2010 00:00:00
    ##  3       63213 2000-05-17  30mar2009 00:00:00
    ##  4       73788 2001-07-20  07sep2009 00:00:00
    ##  5       77294 2000-04-10  19apr2001 00:00:00
    ##  6       68606 2000-04-28  16jul2001 00:00:00
    ##  7       89557 2004-01-26  15may2017 00:00:00
    ##  8       97543 2000-06-23  03apr2002 00:00:00
    ##  9       98714 2000-02-04  27nov2002 00:00:00
    ## 10       65530 2002-02-20  23mar2009 00:00:00
    ## # ℹ 2,018,467 more rows
…
    examiner_dates <- examiner_dates %>% 
      group_by(examiner_id) %>% 
      summarise(
        earliest_date = min(start_date, na.rm = TRUE), 
        latest_date = max(end_date, na.rm = TRUE),
        tenure_days = interval(earliest_date, latest_date) %/% days(1)
        ) %>% 
      filter(year(latest_date)<2018)

    examiner_dates

    ## # A tibble: 5,625 × 4
    ##    examiner_id earliest_date latest_date tenure_days
    ##          <dbl> <date>        <date>            <dbl>
    ##  1       59012 2004-07-28    2015-07-24         4013
    ##  2       59025 2009-10-26    2017-05-18         2761
    ##  3       59030 2005-12-12    2017-05-22         4179
    ##  4       59040 2007-09-11    2017-05-23         3542
    ##  5       59052 2001-08-21    2007-02-28         2017
    ##  6       59054 2000-11-10    2016-12-23         5887
    ##  7       59055 2004-11-02    2007-12-26         1149
    ##  8       59056 2000-03-24    2017-05-22         6268
    ##  9       59074 2000-01-31    2017-03-17         6255
    ## 10       59081 2011-04-21    2017-05-19         2220
    ## # ℹ 5,615 more rows
…
**in order to add separation we must know when each of employee’s max
quarter and compare it to max quarter in the dataset**

    # find the latest time quarter for each examiner
    applications_selected %>%
      group_by(examiner_id) %>%
      mutate(max_quarter = max(quarter))

    ## # A tibble: 2,018,477 × 23
    ## # Groups:   examiner_id [5,649]
    ##    application_number examiner_id examiner_name_first examiner_name_middle
    ##    <chr>                    <dbl> <chr>               <chr>               
    ##  1 10901322                 59012 ALBERT              <NA>                
    ##  2 10595152                 59012 ALBERT              <NA>                
    ##  3 10578100                 59012 ALBERT              <NA>                
    ##  4 11396590                 59012 ALBERT              <NA>                
    ##  5 11427049                 59012 ALBERT              <NA>                
    ##  6 11473554                 59012 ALBERT              <NA>                
    ##  7 10593607                 59012 ALBERT              <NA>                
    ##  8 11466665                 59012 ALBERT              <NA>                
    ##  9 11516177                 59012 ALBERT              <NA>                
    ## 10 11520094                 59012 ALBERT              <NA>                
    ## # ℹ 2,018,467 more rows
    ## # ℹ 19 more variables: examiner_name_last <chr>, tc <dbl>, quarter <chr>,
    ## #   new_applications <int>, ISSUED_applications <int>, abn_applications <int>,
    ## #   PEN_applications <int>, examiner_art_unit <dbl>, women_in_art_unit <int>,
    ## #   Asian_in_art_unit <int>, Black_in_art_unit <int>, Other_in_art_unit <int>,
    ## #   White_in_art_unit <int>, gender <chr>, race <chr>, earliest_date <date>,
    ## #   latest_date <date>, tenure_days <dbl>, max_quarter <chr>
…
    overall_max_quarter <- "2017/1"

    # Create the separation_indicator
    applications_selected <- applications_selected %>%
      group_by(examiner_id) %>%
      mutate(max_quarter_examiner = max(quarter)) %>%
      ungroup() %>%
      mutate(separation_indicator = if_else(max_quarter_examiner < overall_max_quarter, 1, 0))

    applications_selected

    ## # A tibble: 2,018,477 × 24
    ##    application_number examiner_id examiner_name_first examiner_name_middle
    ##    <chr>                    <dbl> <chr>               <chr>               
    ##  1 10901322                 59012 ALBERT              <NA>                
    ##  2 10595152                 59012 ALBERT              <NA>                
    ##  3 10578100                 59012 ALBERT              <NA>                
    ##  4 11396590                 59012 ALBERT              <NA>                
    ##  5 11427049                 59012 ALBERT              <NA>                
    ##  6 11473554                 59012 ALBERT              <NA>                
    ##  7 10593607                 59012 ALBERT              <NA>                
    ##  8 11466665                 59012 ALBERT              <NA>                
    ##  9 11516177                 59012 ALBERT              <NA>                
    ## 10 11520094                 59012 ALBERT              <NA>                
    ## # ℹ 2,018,467 more rows
    ## # ℹ 20 more variables: examiner_name_last <chr>, tc <dbl>, quarter <chr>,
    ## #   new_applications <int>, ISSUED_applications <int>, abn_applications <int>,
    ## #   PEN_applications <int>, examiner_art_unit <dbl>, women_in_art_unit <int>,
    ## #   Asian_in_art_unit <int>, Black_in_art_unit <int>, Other_in_art_unit <int>,
    ## #   White_in_art_unit <int>, gender <chr>, race <chr>, earliest_date <date>,
    ## #   latest_date <date>, tenure_days <dbl>, max_quarter_examiner <chr>, …
…
**Add AU move Indicator**

    applications_selected <- applications_selected %>%
      group_by(examiner_id) %>%
      mutate(au_move_indicator = if_else(examiner_art_unit != lag(examiner_art_unit), 1, 0)) %>%
      ungroup()

    # Fill NA for the au_move_indicator
    applications_selected <- applications_selected %>%
      mutate(au_move_indicator = if_else(is.na(au_move_indicator), 0, au_move_indicator))

    applications_selected

    ## # A tibble: 2,018,477 × 25
    ##    application_number examiner_id examiner_name_first examiner_name_middle
    ##    <chr>                    <dbl> <chr>               <chr>               
    ##  1 10901322                 59012 ALBERT              <NA>                
    ##  2 10595152                 59012 ALBERT              <NA>                
    ##  3 10578100                 59012 ALBERT              <NA>                
    ##  4 11396590                 59012 ALBERT              <NA>                
    ##  5 11427049                 59012 ALBERT              <NA>                
    ##  6 11473554                 59012 ALBERT              <NA>                
    ##  7 10593607                 59012 ALBERT              <NA>                
    ##  8 11466665                 59012 ALBERT              <NA>                
    ##  9 11516177                 59012 ALBERT              <NA>                
    ## 10 11520094                 59012 ALBERT              <NA>                
    ## # ℹ 2,018,467 more rows
    ## # ℹ 21 more variables: examiner_name_last <chr>, tc <dbl>, quarter <chr>,
    ## #   new_applications <int>, ISSUED_applications <int>, abn_applications <int>,
    ## #   PEN_applications <int>, examiner_art_unit <dbl>, women_in_art_unit <int>,
    ## #   Asian_in_art_unit <int>, Black_in_art_unit <int>, Other_in_art_unit <int>,
    ## #   White_in_art_unit <int>, gender <chr>, race <chr>, earliest_date <date>,
    ## #   latest_date <date>, tenure_days <dbl>, max_quarter_examiner <chr>, …
…
